EESchema Schematic File Version 2
LIBS:power
LIBS:device
LIBS:transistors
LIBS:conn
LIBS:linear
LIBS:regul
LIBS:74xx
LIBS:cmos4000
LIBS:adc-dac
LIBS:memory
LIBS:xilinx
LIBS:microcontrollers
LIBS:dsp
LIBS:microchip
LIBS:analog_switches
LIBS:motorola
LIBS:texas
LIBS:intel
LIBS:audio
LIBS:interface
LIBS:digital-audio
LIBS:philips
LIBS:display
LIBS:cypress
LIBS:siliconi
LIBS:opto
LIBS:atmel
LIBS:contrib
LIBS:valves
LIBS:nrf51822
LIBS:nrfUmpad
LIBS:mx1a
LIBS:nrfUmpad-cache
EELAYER 25 0
EELAYER END
$Descr User 17717 11811
encoding utf-8
Sheet 1 1
Title "nrfUmpad PCB"
Date "2016-06-15"
Rev "1"
Comp ""
Comment1 ""
Comment2 ""
Comment3 ""
Comment4 ""
$EndDescr
Wire Wire Line
	6500 4700 6500 5000
Wire Wire Line
	4750 4900 6400 4900
Wire Wire Line
	4750 4500 6700 4500
Wire Wire Line
	4750 4600 6600 4600
Wire Wire Line
	4750 4700 6500 4700
Wire Wire Line
	4750 4300 6700 4300
Wire Wire Line
	4750 4200 6600 4200
Wire Wire Line
	4750 4100 6500 4100
Wire Wire Line
	4750 4000 6400 4000
$Comp
L GND #PWR01
U 1 1 575F99F6
P 3250 6100
F 0 "#PWR01" H 3250 5850 50  0001 C CNN
F 1 "GND" H 3250 5950 50  0000 C CNN
F 2 "" H 3250 6100 50  0000 C CNN
F 3 "" H 3250 6100 50  0000 C CNN
	1    3250 6100
	1    0    0    -1  
$EndComp
$Comp
L GND #PWR02
U 1 1 575F99F7
P 3050 1650
F 0 "#PWR02" H 3050 1400 50  0001 C CNN
F 1 "GND" H 3055 1477 50  0000 C CNN
F 2 "" H 3050 1650 50  0000 C CNN
F 3 "" H 3050 1650 50  0000 C CNN
	1    3050 1650
	-1   0    0    1   
$EndComp
$Comp
L L_Small L3
U 1 1 575F99F8
P 4250 1800
F 0 "L3" H 4280 1840 50  0000 L CNN
F 1 "15nH" H 4280 1760 50  0000 L CNN
F 2 "Capacitors_SMD:C_0402" H 4250 1800 50  0001 C CNN
F 3 "" H 4250 1800 50  0000 C CNN
F 4 "-" H 4250 1800 60  0001 C CNN "MFPN"
F 5 "-" H 4250 1800 60  0001 C CNN "DIGIKEY"
F 6 "-" H 4250 1800 60  0001 C CNN "MFN"
F 7 "High frequency chip inductor ±10%" H 4250 1800 60  0001 C CNN "Description"
F 8 "MLK1005S15NJT000" H 4250 1800 60  0001 C CNN "Manufacturer Part"
F 9 "TDK" H 4250 1800 60  0001 C CNN "Manufacturer"
F 10 "445-1469-1-ND" H 4250 1800 60  0001 C CNN "Distributor 1"
	1    4250 1800
	1    0    0    -1  
$EndComp
$Comp
L L_Small L2
U 1 1 575F99F9
P 4250 2200
F 0 "L2" H 4280 2240 50  0000 L CNN
F 1 "10uH" H 4280 2160 50  0000 L CNN
F 2 "Capacitors_SMD:C_0603" H 4250 2200 50  0001 C CNN
F 3 "" H 4250 2200 50  0000 C CNN
F 4 "Chip inductor IDC min = 50 mA ±20%" H 4250 2200 60  0001 C CNN "Description"
F 5 "MLZ1608N100LT000" H 4250 2200 60  0001 C CNN "Manufacturer Part"
F 6 "TDK" H 4250 2200 60  0001 C CNN "Manufacturer"
F 7 "445-6755-1-ND" H 4250 2200 60  0001 C CNN "Distributor 1"
	1    4250 2200
	1    0    0    -1  
$EndComp
$Comp
L GND #PWR03
U 1 1 575F99FA
P 3450 1100
F 0 "#PWR03" H 3450 850 50  0001 C CNN
F 1 "GND" H 3455 927 50  0000 C CNN
F 2 "" H 3450 1100 50  0000 C CNN
F 3 "" H 3450 1100 50  0000 C CNN
	1    3450 1100
	-1   0    0    1   
$EndComp
$Comp
L L_Small L1
U 1 1 575F99FB
P 5400 2450
F 0 "L1" H 5448 2496 50  0000 L CNN
F 1 "3.9nH" H 5448 2405 50  0000 L CNN
F 2 "Capacitors_SMD:C_0402" H 5400 2450 50  0001 C CNN
F 3 "" H 5400 2450 50  0000 C CNN
F 4 "-" H 5400 2450 60  0001 C CNN "MFPN"
F 5 "-" H 5400 2450 60  0001 C CNN "DIGIKEY"
F 6 "-" H 5400 2450 60  0001 C CNN "MFN"
F 7 "High frequency chip inductor ±5%" H 5400 2450 60  0001 C CNN "Description"
	1    5400 2450
	1    0    0    -1  
$EndComp
$Comp
L C C3
U 1 1 575F99FC
P 5400 2750
F 0 "C3" H 5515 2796 50  0000 L CNN
F 1 ".8pF" H 5515 2705 50  0000 L CNN
F 2 "Capacitors_SMD:C_0402" H 5438 2600 50  0001 C CNN
F 3 "" H 5400 2750 50  0000 C CNN
F 4 "-" H 5400 2750 60  0001 C CNN "MFPN"
F 5 "-" H 5400 2750 60  0001 C CNN "DIGIKEY"
F 6 "-" H 5400 2750 60  0001 C CNN "MFN"
F 7 "Capacitor NP0 ±5%" H 5400 2750 60  0001 C CNN "Description"
F 8 "." H 5400 2750 60  0001 C CNN "Manufacturer Part"
F 9 "." H 5400 2750 60  0001 C CNN "Manufacturer"
F 10 "." H 5400 2750 60  0001 C CNN "Distributor 1"
	1    5400 2750
	1    0    0    -1  
$EndComp
$Comp
L C C9
U 1 1 575F99FD
P 3250 1850
F 0 "C9" H 3275 1950 50  0000 L CNN
F 1 "4.7uF" H 3275 1750 50  0000 L CNN
F 2 "Capacitors_SMD:C_0603" H 3288 1700 50  0001 C CNN
F 3 "" H 3250 1850 50  0000 C CNN
F 4 "GRM188R61C475KE11D" H 3250 1850 60  0001 C CNN "MFPN"
F 5 "490-10730-1-ND" H 3250 1850 60  0001 C CNN "DIGIKEY"
F 6 "Murata Electronics North America" H 3250 1850 60  0001 C CNN "MFN"
F 7 "Capacitor X5R ±10%" H 3250 1850 60  0001 C CNN "Description"
	1    3250 1850
	1    0    0    -1  
$EndComp
$Comp
L C C5
U 1 1 575F99FE
P 2850 1850
F 0 "C5" H 2875 1950 50  0000 L CNN
F 1 "100nF" H 2875 1750 50  0000 L CNN
F 2 "Capacitors_SMD:C_0402" H 2888 1700 50  0001 C CNN
F 3 "" H 2850 1850 50  0000 C CNN
F 4 "CC0402KRX7R6BB104" H 2850 1850 60  0001 C CNN "MFPN"
F 5 "311-1345-1-ND" H 2850 1850 60  0001 C CNN "DIGIKEY"
F 6 "Yageo" H 2850 1850 60  0001 C CNN "MFN"
F 7 "Capacitor X7R ±10%" H 2850 1850 60  0001 C CNN "Description"
	1    2850 1850
	1    0    0    -1  
$EndComp
$Comp
L C C2
U 1 1 575F99FF
P 1800 5700
F 0 "C2" V 1960 5700 50  0000 C CNN
F 1 "12pF" V 2051 5700 50  0000 C CNN
F 2 "Capacitors_SMD:C_0402" H 1838 5550 50  0001 C CNN
F 3 "http://media.digikey.com/pdf/Data%20Sheets/Murata%20PDFs/GRM%20Series%20Data.pdf" H 1800 5700 50  0001 C CNN
F 4 "GRM1555C1H120GA01D" H 1800 5700 60  0001 C CNN "MFPN"
F 5 "490-6197-1-ND" H 1800 5700 60  0001 C CNN "DIGIKEY"
F 6 "Yageo" H 1800 5700 60  0001 C CNN "MFN"
F 7 "Capacitor NP0 ±2%" H 1800 5700 60  0001 C CNN "Description"
	1    1800 5700
	0    1    1    0   
$EndComp
$Comp
L C C1
U 1 1 575F9A00
P 1800 5300
F 0 "C1" V 1548 5300 50  0000 C CNN
F 1 "12pF" V 1639 5300 50  0000 C CNN
F 2 "Capacitors_SMD:C_0402" H 1838 5150 50  0001 C CNN
F 3 "http://media.digikey.com/pdf/Data%20Sheets/Murata%20PDFs/GRM%20Series%20Data.pdf" H 1800 5300 50  0001 C CNN
F 4 "GRM1555C1H120GA01D" H 1800 5300 60  0001 C CNN "MFPN"
F 5 "490-6197-1-ND" H 1800 5300 60  0001 C CNN "DIGIKEY"
F 6 "Yageo" H 1800 5300 60  0001 C CNN "MFN"
F 7 "Capacitor NP0 ±2%" H 1800 5300 60  0001 C CNN "Description"
F 8 "490-6197-1-ND" H 1800 5300 60  0001 C CNN "Distributor 1"
	1    1800 5300
	0    1    1    0   
$EndComp
$Comp
L GND #PWR04
U 1 1 575F9A01
P 1450 5700
F 0 "#PWR04" H 1450 5450 50  0001 C CNN
F 1 "GND" H 1455 5527 50  0000 C CNN
F 2 "" H 1450 5700 50  0000 C CNN
F 3 "" H 1450 5700 50  0000 C CNN
	1    1450 5700
	1    0    0    -1  
$EndComp
$Comp
L GND #PWR05
U 1 1 575F9A02
P 5400 2950
F 0 "#PWR05" H 5400 2700 50  0001 C CNN
F 1 "GND" H 5405 2777 50  0000 C CNN
F 2 "" H 5400 2950 50  0000 C CNN
F 3 "" H 5400 2950 50  0000 C CNN
	1    5400 2950
	1    0    0    -1  
$EndComp
$Comp
L nrf52832-qfax U2
U 1 1 575F9A03
P 3550 4100
F 0 "U2" H 3550 4100 60  0000 C CNN
F 1 "nrf51822-qfax" H 3550 3950 60  0000 C CNN
F 2 "nrf:nrf51-qfax-1ep" H 3450 4450 60  0001 C CNN
F 3 "http://infocenter.nordicsemi.com/index.jsp" H 3550 2094 60  0001 C CNN
F 4 "NRF51822-QFAC-T" H 3550 4100 60  0001 C CNN "MFPN"
F 5 "1490-1052-1-ND" H 3550 4100 60  0001 C CNN "DIGIKEY"
F 6 "Nordic Semiconductor ASA" H 3550 4100 60  0001 C CNN "MFN"
	1    3550 4100
	1    0    0    -1  
$EndComp
$Comp
L Crystal-4 X1
U 1 1 575F9A04
P 2150 5500
F 0 "X1" H 2250 5650 50  0000 C CNN
F 1 "Crystal-4" H 2150 5250 50  0000 C CNN
F 2 "nrf-dcdc:BT-XTAL_2016" H 2150 5500 50  0001 C CNN
F 3 "http://www.kyocera-crystal.jp/eng/wp-content/uploads/2014/09/cx2016db_e.pdf" H 2150 5500 50  0001 C CNN
F 4 "CX2016DB32000D0WZRC1" H 2150 5500 60  0001 C CNN "MFPN"
F 5 "1253-1586-1-ND" H 2150 5500 60  0001 C CNN "DIGIKEY"
F 6 "AVX Corp/Kyocera Corp" H 2150 5500 60  0001 C CNN "MFN"
F 7 "32Mhz 8pF ±40ppm" H 2150 5500 60  0001 C CNN "Description"
	1    2150 5500
	1    0    0    -1  
$EndComp
$Comp
L Crystal_Small X2
U 1 1 575F9A07
P 2050 2600
F 0 "X2" H 2050 2700 50  0000 C CNN
F 1 "32.768kHz" H 2050 2500 50  0000 C CNN
F 2 "nrf-dcdc:XTAL_3215" H 2050 2600 50  0001 C CNN
F 3 "http://www.abracon.com/Resonators/ABS07.pdf" H 2050 2600 50  0001 C CNN
F 4 "ABS07-32.768KHZ-9-T" H 2050 2600 60  0001 C CNN "MFPN"
F 5 "535-9544-1-ND" H 2050 2600 60  0001 C CNN "DIGIKEY"
F 6 "Abracon LLC" H 2050 2600 60  0001 C CNN "MFN"
F 7 "32.768kHz 9pF ±20ppm" H 2050 2600 60  0001 C CNN "Description"
	1    2050 2600
	0    -1   -1   0   
$EndComp
$Comp
L GND #PWR06
U 1 1 575F9A08
P 1450 2700
F 0 "#PWR06" H 1450 2450 50  0001 C CNN
F 1 "GND" H 1455 2527 50  0000 C CNN
F 2 "" H 1450 2700 50  0000 C CNN
F 3 "" H 1450 2700 50  0000 C CNN
	1    1450 2700
	1    0    0    -1  
$EndComp
$Comp
L C C4
U 1 1 575F9A09
P 3450 1350
F 0 "C4" V 3400 1400 50  0000 L CNN
F 1 "100nF" V 3400 1050 50  0000 L CNN
F 2 "Capacitors_SMD:C_0402" H 3488 1200 50  0001 C CNN
F 3 "" H 3450 1350 50  0000 C CNN
F 4 "-" H 3450 1350 60  0001 C CNN "MFPN"
F 5 "-" H 3450 1350 60  0001 C CNN "DIGIKEY"
F 6 "-" H 3450 1350 60  0001 C CNN "MFN"
F 7 "Capacitor X7R ±10%" H 3450 1350 60  0001 C CNN "Description"
F 8 "." H 3450 1350 60  0001 C CNN "Manufacturer Part"
F 9 "." H 3450 1350 60  0001 C CNN "Manufacturer"
F 10 "." H 3450 1350 60  0001 C CNN "Distributor 1"
	1    3450 1350
	1    0    0    -1  
$EndComp
$Comp
L C C6
U 1 1 575F9A0A
P 3650 1350
F 0 "C6" V 3600 1400 50  0000 L CNN
F 1 "NC" V 3600 1200 50  0000 L CNN
F 2 "Capacitors_SMD:C_0402" H 3688 1200 50  0001 C CNN
F 3 "" H 3650 1350 50  0000 C CNN
F 4 "-" H 3650 1350 60  0001 C CNN "MFPN"
F 5 "-" H 3650 1350 60  0001 C CNN "DIGIKEY"
F 6 "-" H 3650 1350 60  0001 C CNN "MFN"
F 7 "." H 3650 1350 60  0001 C CNN "Description"
F 8 "." H 3650 1350 60  0001 C CNN "Manufacturer Part"
F 9 "." H 3650 1350 60  0001 C CNN "Manufacturer"
F 10 "." H 3650 1350 60  0001 C CNN "Distributor 1"
	1    3650 1350
	1    0    0    -1  
$EndComp
$Comp
L C C7
U 1 1 575F9A0B
P 3850 1350
F 0 "C7" V 3800 1400 50  0000 L CNN
F 1 "100pF" V 3800 1050 50  0000 L CNN
F 2 "Capacitors_SMD:C_0402" H 3888 1200 50  0001 C CNN
F 3 "" H 3850 1350 50  0000 C CNN
F 4 "-" H 3850 1350 60  0001 C CNN "MFPN"
F 5 "-" H 3850 1350 60  0001 C CNN "DIGIKEY"
F 6 "-" H 3850 1350 60  0001 C CNN "MFN"
F 7 "Capacitor NP0 ±5%" H 3850 1350 60  0001 C CNN "Description"
F 8 "." H 3850 1350 60  0001 C CNN "Manufacturer Part"
F 9 "." H 3850 1350 60  0001 C CNN "Manufacturer"
F 10 "." H 3850 1350 60  0001 C CNN "Distributor 1"
	1    3850 1350
	1    0    0    -1  
$EndComp
$Comp
L C C10
U 1 1 575F9A0C
P 4050 1350
F 0 "C10" V 4000 1400 50  0000 L CNN
F 1 "1.0uF" V 4000 1050 50  0000 L CNN
F 2 "Capacitors_SMD:C_0603" H 4088 1200 50  0001 C CNN
F 3 "" H 4050 1350 50  0000 C CNN
F 4 "-" H 4050 1350 60  0001 C CNN "MFPN"
F 5 "-" H 4050 1350 60  0001 C CNN "DIGIKEY"
F 6 "-" H 4050 1350 60  0001 C CNN "MFN"
F 7 "Capacitor X7R ±10%" H 4050 1350 60  0001 C CNN "Description"
F 8 "." H 4050 1350 60  0001 C CNN "Manufacturer Part"
F 9 "." H 4050 1350 60  0001 C CNN "Manufacturer"
F 10 "." H 4050 1350 60  0001 C CNN "Distributor 1"
	1    4050 1350
	1    0    0    -1  
$EndComp
Connection ~ 3250 6000
Wire Wire Line
	3250 6000 3950 6000
Connection ~ 3350 6000
Wire Wire Line
	4250 1900 4250 2100
Wire Wire Line
	4250 2400 4250 2300
Wire Wire Line
	3950 6000 3950 5800
Connection ~ 3450 6000
Wire Wire Line
	1450 5300 1450 5700
Connection ~ 5400 2600
Connection ~ 2850 1650
Wire Wire Line
	3050 1700 3050 1650
Connection ~ 3050 1650
Wire Wire Line
	3350 5800 3350 6000
Wire Wire Line
	3250 5800 3250 6100
Connection ~ 2150 5700
Wire Wire Line
	2350 5700 2350 5600
Wire Wire Line
	1950 5700 2350 5700
Wire Wire Line
	1650 5300 1450 5300
Wire Wire Line
	1450 5700 1650 5700
Connection ~ 1450 5500
Wire Wire Line
	1950 5300 2350 5300
Connection ~ 2150 5300
Wire Wire Line
	1850 2700 2350 2700
Connection ~ 2050 2700
Connection ~ 2050 2500
Wire Wire Line
	1550 2500 1450 2500
Wire Wire Line
	1450 2500 1450 2700
Wire Wire Line
	1450 2700 1550 2700
Connection ~ 1450 2700
Wire Wire Line
	2350 2600 2250 2600
Wire Wire Line
	2250 2600 2250 2500
Wire Wire Line
	2250 2500 1850 2500
Wire Wire Line
	3450 1500 3450 2400
Wire Wire Line
	3450 1100 3450 1200
Wire Wire Line
	3650 1500 3650 2400
Wire Wire Line
	3850 1500 3850 2400
Wire Wire Line
	4050 1500 4050 2400
Wire Wire Line
	4250 1600 4050 1600
Connection ~ 4050 1600
Wire Wire Line
	4250 1600 4250 1700
Wire Wire Line
	4050 1100 4050 1200
Wire Wire Line
	3450 1100 4050 1100
Wire Wire Line
	3850 1100 3850 1200
Wire Wire Line
	3650 1100 3650 1200
Connection ~ 3850 1100
Connection ~ 3450 1100
Connection ~ 3650 1100
Wire Wire Line
	3250 1650 3250 1700
Wire Wire Line
	2850 1650 3250 1650
Wire Wire Line
	2850 1700 2850 1650
Connection ~ 3050 2000
Connection ~ 2850 2000
Connection ~ 3250 2000
Wire Wire Line
	3050 2000 3050 2400
Wire Wire Line
	2850 2400 2850 2000
Wire Wire Line
	3250 2000 3250 2400
Wire Wire Line
	2700 2000 3250 2000
$Comp
L CONN_01X06 P2
U 1 1 5760C7A5
P 1650 4600
F 0 "P2" H 1650 4950 50  0000 C CNN
F 1 "prgm header" V 1750 4600 50  0000 C CNN
F 2 "nrfUmpad:TC2030-NL" H 1650 4600 50  0001 C CNN
F 3 "" H 1650 4600 50  0000 C CNN
F 4 "-" H 1650 4600 60  0001 C CNN "MFPN"
F 5 "-" H 1650 4600 60  0001 C CNN "DIGIKEY"
F 6 "-" H 1650 4600 60  0001 C CNN "MFN"
	1    1650 4600
	-1   0    0    1   
$EndComp
Wire Wire Line
	2050 4750 1850 4750
Wire Wire Line
	2350 4700 2050 4700
Wire Wire Line
	2050 4700 2050 4750
Wire Wire Line
	2350 4600 2050 4600
Wire Wire Line
	2050 4600 2050 4550
Wire Wire Line
	2050 4550 1850 4550
$Comp
L GND #PWR07
U 1 1 5760CEFF
P 2050 4350
F 0 "#PWR07" H 2050 4100 50  0001 C CNN
F 1 "GND" H 1972 4313 50  0000 R CNN
F 2 "" H 2050 4350 50  0000 C CNN
F 3 "" H 2050 4350 50  0000 C CNN
	1    2050 4350
	-1   0    0    1   
$EndComp
Wire Wire Line
	1850 4450 2050 4450
Wire Wire Line
	2050 4450 2050 4350
$Comp
L VDD #PWR08
U 1 1 5760D06C
P 2050 4950
F 0 "#PWR08" H 2050 4800 50  0001 C CNN
F 1 "VDD" H 2068 5123 50  0000 C CNN
F 2 "" H 2050 4950 50  0000 C CNN
F 3 "" H 2050 4950 50  0000 C CNN
	1    2050 4950
	-1   0    0    1   
$EndComp
Wire Wire Line
	1850 4850 2050 4850
Wire Wire Line
	2050 4850 2050 4950
Wire Wire Line
	4850 5150 5950 5150
Connection ~ 5750 5150
Connection ~ 5550 5150
Connection ~ 5350 5150
$Comp
L R_Small R7
U 1 1 5761D6CF
P 5950 5350
F 0 "R7" H 6009 5396 50  0000 L CNN
F 1 "100k" H 6009 5305 50  0000 L CNN
F 2 "Resistors_SMD:R_0603" H 5950 5350 50  0001 C CNN
F 3 "" H 5950 5350 50  0000 C CNN
	1    5950 5350
	1    0    0    -1  
$EndComp
Wire Wire Line
	5950 5150 5950 5250
$Comp
L GND #PWR09
U 1 1 5761D958
P 5950 5550
F 0 "#PWR09" H 5950 5300 50  0001 C CNN
F 1 "GND" H 5955 5377 50  0000 C CNN
F 2 "" H 5950 5550 50  0000 C CNN
F 3 "" H 5950 5550 50  0000 C CNN
	1    5950 5550
	1    0    0    -1  
$EndComp
Wire Wire Line
	5950 5450 5950 5550
$Comp
L C_Small C15
U 1 1 5761DA9F
P 5550 5350
F 0 "C15" H 5642 5396 50  0000 L CNN
F 1 "100nF" H 5642 5305 50  0000 L CNN
F 2 "Capacitors_SMD:C_0402" H 5550 5350 50  0001 C CNN
F 3 "" H 5550 5350 50  0000 C CNN
	1    5550 5350
	1    0    0    -1  
$EndComp
Wire Wire Line
	5550 5150 5550 5250
Wire Wire Line
	5550 5450 5550 5500
Wire Wire Line
	5550 5500 5950 5500
Connection ~ 5950 5500
$Comp
L D_Schottky_Small D9
U 1 1 5762569A
P 7600 4650
F 0 "D9" H 7550 4730 50  0000 L CNN
F 1 "D_Schottky_Small" H 7320 4570 50  0001 L CNN
F 2 "LEDs:LED_0603" V 7600 4650 50  0001 C CNN
F 3 "http://rohmfs.rohm.com/en/products/databook/datasheet/discrete/diode/detection_schottky/rb886g.pdf" V 7600 4650 50  0001 C CNN
F 4 "RB886GT2R" H 7600 4650 60  0001 C CNN "MFPN"
F 5 "RB886GT2RCT-ND" H 7600 4650 60  0001 C CNN "DIGIKEY"
F 6 "Rohm Semiconductor" H 7600 4650 60  0001 C CNN "MFN"
	1    7600 4650
	-1   0    0    1   
$EndComp
Wire Wire Line
	5950 4950 5950 4900
Connection ~ 5950 4900
Wire Wire Line
	5750 4950 5750 4700
Connection ~ 5750 4700
Wire Wire Line
	5550 4950 5550 4600
Connection ~ 5550 4600
Wire Wire Line
	5350 4950 5350 4500
Connection ~ 5350 4500
Wire Wire Line
	2350 3200 1850 3200
Wire Wire Line
	1850 3200 1850 4350
Wire Wire Line
	2350 3300 1950 3300
Wire Wire Line
	1950 3300 1950 4650
Wire Wire Line
	1950 4650 1850 4650
$Comp
L GND #PWR010
U 1 1 57685738
P 4650 7600
F 0 "#PWR010" H 4650 7350 50  0001 C CNN
F 1 "GND" H 4650 7450 50  0000 C CNN
F 2 "" H 4650 7600 50  0000 C CNN
F 3 "" H 4650 7600 50  0000 C CNN
	1    4650 7600
	1    0    0    -1  
$EndComp
$Comp
L R_Small R2
U 1 1 576857D2
P 4650 7200
F 0 "R2" H 4709 7246 50  0000 L CNN
F 1 "800k" H 4709 7155 50  0000 L CNN
F 2 "Resistors_SMD:R_0603" H 4650 7200 50  0001 C CNN
F 3 "" H 4650 7200 50  0000 C CNN
	1    4650 7200
	1    0    0    -1  
$EndComp
$Comp
L R_Small R3
U 1 1 576858B7
P 4650 7500
F 0 "R3" H 4592 7546 50  0000 R CNN
F 1 "1M" H 4592 7455 50  0000 R CNN
F 2 "Resistors_SMD:R_0603" H 4650 7500 50  0001 C CNN
F 3 "" H 4650 7500 50  0000 C CNN
	1    4650 7500
	1    0    0    -1  
$EndComp
Wire Wire Line
	4650 7300 4650 7400
$Comp
L tps62736 U4
U 1 1 576CD0F1
P 6050 7400
F 0 "U4" H 5950 7650 60  0000 C CNN
F 1 "tps62736" H 5950 7400 60  0000 C CNN
F 2 "nrfUmpad:14-VFQFN" H 6050 7400 60  0001 C CNN
F 3 "http://www.ti.com/lit/ds/symlink/tps62736.pdf" H 6050 7400 60  0001 C CNN
F 4 "TPS62736RGYR" H 6050 7400 60  0001 C CNN "MFPN"
F 5 "296-43622-1-ND" H 6050 7400 60  0001 C CNN "DIGIKEY"
F 6 "Texas Instruments" H 6050 7400 60  0001 C CNN "MFN"
	1    6050 7400
	-1   0    0    1   
$EndComp
$Comp
L GND #PWR011
U 1 1 576D019A
P 6150 8200
F 0 "#PWR011" H 6150 7950 50  0001 C CNN
F 1 "GND" H 6150 8050 50  0000 C CNN
F 2 "" H 6150 8200 50  0000 C CNN
F 3 "" H 6150 8200 50  0000 C CNN
	1    6150 8200
	1    0    0    -1  
$EndComp
$Comp
L L_Small L4
U 1 1 576D14CE
P 6600 8300
F 0 "L4" V 6700 8300 50  0000 C CNN
F 1 "10uH" V 6550 8300 50  0000 C CNN
F 2 "Capacitors_SMD:C_0603" H 6600 8300 50  0001 C CNN
F 3 "" H 6600 8300 50  0000 C CNN
	1    6600 8300
	0    -1   -1   0   
$EndComp
Wire Wire Line
	6300 8200 6300 8300
Wire Wire Line
	6300 8300 6500 8300
$Comp
L VDD #PWR012
U 1 1 576D89C5
P 2700 2000
F 0 "#PWR012" H 2700 1850 50  0001 C CNN
F 1 "VDD" V 2718 2127 50  0000 L CNN
F 2 "" H 2700 2000 50  0000 C CNN
F 3 "" H 2700 2000 50  0000 C CNN
	1    2700 2000
	0    -1   -1   0   
$EndComp
$Comp
L VDD #PWR013
U 1 1 576E5001
P 7050 8300
F 0 "#PWR013" H 7050 8150 50  0001 C CNN
F 1 "VDD" H 7050 8450 50  0000 C CNN
F 2 "" H 7050 8300 50  0000 C CNN
F 3 "" H 7050 8300 50  0000 C CNN
	1    7050 8300
	-1   0    0    1   
$EndComp
Wire Wire Line
	6700 8300 7050 8300
Wire Wire Line
	6000 8200 6000 8400
Wire Wire Line
	6000 8400 6800 8400
Wire Wire Line
	6800 8400 6800 8250
Connection ~ 6800 8300
$Comp
L C_Small C17
U 1 1 576E6487
P 6800 8150
F 0 "C17" H 6810 8220 50  0000 L CNN
F 1 "0.1uF" H 6800 8050 50  0000 L CNN
F 2 "Capacitors_SMD:C_0603" H 6800 8150 50  0001 C CNN
F 3 "" H 6800 8150 50  0000 C CNN
	1    6800 8150
	1    0    0    -1  
$EndComp
$Comp
L C_Small C19
U 1 1 576E678A
P 7050 8150
F 0 "C19" H 7060 8220 50  0000 L CNN
F 1 "22uF" H 7050 8050 50  0000 L CNN
F 2 "Capacitors_SMD:C_0603" H 7050 8150 50  0001 C CNN
F 3 "" H 7050 8150 50  0000 C CNN
	1    7050 8150
	1    0    0    -1  
$EndComp
$Comp
L GND #PWR014
U 1 1 576E6A0E
P 7000 7750
F 0 "#PWR014" H 7000 7500 50  0001 C CNN
F 1 "GND" V 7005 7622 50  0000 R CNN
F 2 "" H 7000 7750 50  0000 C CNN
F 3 "" H 7000 7750 50  0000 C CNN
	1    7000 7750
	0    -1   -1   0   
$EndComp
Wire Wire Line
	6800 8000 6800 8050
Wire Wire Line
	6700 8000 7050 8000
Wire Wire Line
	7050 8000 7050 8050
Wire Wire Line
	7050 8300 7050 8250
$Comp
L +BATT #PWR015
U 1 1 57708C17
P 7000 7300
F 0 "#PWR015" H 7000 7150 50  0001 C CNN
F 1 "+BATT" V 7015 7428 50  0000 L CNN
F 2 "" H 7000 7300 50  0000 C CNN
F 3 "" H 7000 7300 50  0000 C CNN
	1    7000 7300
	0    1    1    0   
$EndComp
Wire Wire Line
	6700 7300 7000 7300
Wire Wire Line
	6700 7550 6700 8000
Connection ~ 6800 8000
$Comp
L C_Small C16
U 1 1 5770EAF9
P 6700 7450
F 0 "C16" V 6650 7250 50  0000 L CNN
F 1 "0.1uF" V 6750 7200 50  0000 L CNN
F 2 "Capacitors_SMD:C_0603" H 6700 7450 50  0001 C CNN
F 3 "" H 6700 7450 50  0000 C CNN
	1    6700 7450
	1    0    0    -1  
$EndComp
Wire Wire Line
	6700 7300 6700 7350
Connection ~ 6700 7300
Wire Wire Line
	6700 7750 7000 7750
Connection ~ 6700 7750
Wire Wire Line
	6950 7300 6950 7350
Connection ~ 6950 7300
Connection ~ 6950 7750
$Comp
L R_Small R5
U 1 1 57727EAF
P 5300 7550
F 0 "R5" V 5300 7550 50  0000 C CNN
F 1 "5.23M" V 5200 7550 50  0000 C CNN
F 2 "Resistors_SMD:R_0603" H 5300 7550 50  0001 C CNN
F 3 "" H 5300 7550 50  0000 C CNN
	1    5300 7550
	0    1    1    0   
$EndComp
Wire Wire Line
	5400 7550 5400 7550
$Comp
L GND #PWR016
U 1 1 577281D5
P 5100 7600
F 0 "#PWR016" H 5100 7350 50  0001 C CNN
F 1 "GND" H 5100 7450 50  0000 C CNN
F 2 "" H 5100 7600 50  0000 C CNN
F 3 "" H 5100 7600 50  0000 C CNN
	1    5100 7600
	1    0    0    -1  
$EndComp
Wire Wire Line
	5200 7550 5100 7550
Wire Wire Line
	5100 7550 5100 7600
$Comp
L R_Small R6
U 1 1 57729018
P 5400 8050
F 0 "R6" H 5430 8070 50  0000 L CNN
F 1 "3.32k" H 5430 8010 50  0000 L CNN
F 2 "Resistors_SMD:R_0603" H 5400 8050 50  0001 C CNN
F 3 "" H 5400 8050 50  0000 C CNN
	1    5400 8050
	-1   0    0    1   
$EndComp
Wire Wire Line
	5400 7550 5400 7950
Wire Wire Line
	5400 8150 5400 8200
Wire Wire Line
	5000 8200 5700 8200
$Comp
L R_Small R4
U 1 1 5772A372
P 5300 7350
F 0 "R4" V 5300 7350 50  0000 C CNN
F 1 "7.68M" V 5405 7350 50  0000 C CNN
F 2 "Resistors_SMD:R_0603" H 5300 7350 50  0001 C CNN
F 3 "" H 5300 7350 50  0000 C CNN
	1    5300 7350
	0    -1   -1   0   
$EndComp
Wire Wire Line
	5400 7350 5400 7350
Wire Wire Line
	5200 7350 5000 7350
Wire Wire Line
	5000 7350 5000 8200
Connection ~ 5400 8200
$Comp
L GND #PWR017
U 1 1 5773527F
P 5900 6850
F 0 "#PWR017" H 5900 6600 50  0001 C CNN
F 1 "GND" H 5900 6700 50  0000 C CNN
F 2 "" H 5900 6850 50  0000 C CNN
F 3 "" H 5900 6850 50  0000 C CNN
	1    5900 6850
	-1   0    0    1   
$EndComp
Wire Wire Line
	5900 6850 5900 6950
Wire Wire Line
	5900 6900 6350 6900
Wire Wire Line
	6050 6900 6050 6950
Connection ~ 5900 6900
Wire Wire Line
	6200 6900 6200 6950
Connection ~ 6050 6900
Wire Wire Line
	6350 6900 6350 6950
Connection ~ 6200 6900
Wire Wire Line
	5850 8200 5850 8250
Wire Wire Line
	5850 8250 4950 8250
Wire Wire Line
	4950 8250 4950 6950
Wire Wire Line
	4500 6950 5750 6950
$Comp
L MCP73831/2_DFN U1
U 1 1 57753AE3
P 2750 7950
F 0 "U1" H 2725 7569 60  0000 C CNN
F 1 "MCP73831/2_DFN" H 2725 7463 60  0000 C CNN
F 2 "nrfUmpad:DFN-8" H 2550 7850 60  0001 C CNN
F 3 "http://www.microchip.com/mymicrochip/filehandler.aspx?ddocname=en025112" H 2550 7850 60  0001 C CNN
F 4 "MCP73831T-2ACI/OT" H 2750 7950 60  0001 C CNN "MFPN"
F 5 "MCP73831T-2ACI/OTCT-ND" H 2750 7950 60  0001 C CNN "DIGIKEY"
F 6 "Microchip Technology" H 2750 7950 60  0001 C CNN "MFN"
	1    2750 7950
	1    0    0    -1  
$EndComp
$Comp
L GND #PWR018
U 1 1 5775942B
P 1900 7100
F 0 "#PWR018" H 1900 6850 50  0001 C CNN
F 1 "GND" V 1905 6972 50  0000 R CNN
F 2 "" H 1900 7100 50  0000 C CNN
F 3 "" H 1900 7100 50  0000 C CNN
	1    1900 7100
	0    -1   -1   0   
$EndComp
Wire Wire Line
	2200 7300 2200 7900
Wire Wire Line
	2200 7900 2300 7900
Connection ~ 2200 7750
$Comp
L R_Small R1
U 1 1 5775A454
P 3350 7900
F 0 "R1" H 3409 7946 50  0000 L CNN
F 1 "15k" H 3409 7855 50  0000 L CNN
F 2 "Resistors_SMD:R_0603" H 3350 7900 50  0001 C CNN
F 3 "" H 3350 7900 50  0000 C CNN
	1    3350 7900
	1    0    0    -1  
$EndComp
Wire Wire Line
	3150 7750 3350 7750
Wire Wire Line
	3350 7750 3350 7800
Wire Wire Line
	3150 8050 3450 8050
Wire Wire Line
	3350 8050 3350 8000
$Comp
L +BATT #PWR019
U 1 1 5775B977
P 1850 8200
F 0 "#PWR019" H 1850 8050 50  0001 C CNN
F 1 "+BATT" V 1865 8327 50  0000 L CNN
F 2 "" H 1850 8200 50  0000 C CNN
F 3 "" H 1850 8200 50  0000 C CNN
	1    1850 8200
	0    -1   -1   0   
$EndComp
Wire Wire Line
	1850 8200 2300 8200
Wire Wire Line
	2300 8050 2200 8050
Wire Wire Line
	2200 8050 2200 8200
Connection ~ 2200 8200
Wire Wire Line
	3150 8200 3800 8200
Wire Wire Line
	1900 7650 1900 7750
Connection ~ 1900 7750
$Comp
L GND #PWR020
U 1 1 57775AB6
P 1850 7900
F 0 "#PWR020" H 1850 7650 50  0001 C CNN
F 1 "GND" V 1855 7772 50  0000 R CNN
F 2 "" H 1850 7900 50  0000 C CNN
F 3 "" H 1850 7900 50  0000 C CNN
	1    1850 7900
	0    1    1    0   
$EndComp
Wire Wire Line
	1850 7900 1950 7900
Connection ~ 1950 8200
Wire Wire Line
	4650 7100 4650 6950
Connection ~ 4950 6950
Text GLabel 4500 7350 0    60   Input ~ 0
VBAT_SENSE
Wire Wire Line
	4500 7350 4650 7350
Connection ~ 4650 7350
Text GLabel 2200 3050 0    60   Input ~ 0
VBAT_SENSE
Wire Wire Line
	2250 2800 2250 3050
Wire Wire Line
	2250 2800 2350 2800
$Comp
L GND #PWR021
U 1 1 5763EC3B
P 3450 8050
F 0 "#PWR021" H 3450 7800 50  0001 C CNN
F 1 "GND" V 3455 7922 50  0000 R CNN
F 2 "" H 3450 8050 50  0000 C CNN
F 3 "" H 3450 8050 50  0000 C CNN
	1    3450 8050
	0    -1   -1   0   
$EndComp
Connection ~ 3350 8050
$Comp
L CONN_01X02 P3
U 1 1 57649DB1
P 7650 8200
F 0 "P3" V 7772 8195 50  0000 C CNN
F 1 "S2B-PH-SM4" V 7863 8195 50  0000 C CNN
F 2 "nrfUmpad:JST_S2B-PH-SM4-TB" H 7650 8200 50  0001 C CNN
F 3 "http://www.jst-mfg.com/product/pdf/eng/ePH.pdf" H 7650 8200 50  0001 C CNN
F 4 "S2B-PH-SM4-TB" H 7650 8200 60  0001 C CNN "MFPN"
F 5 "455-1749-1-ND" H 7650 8200 60  0001 C CNN "DIGIKEY"
F 6 "JST Sales America Inc." H 7650 8200 60  0001 C CNN "MFN"
	1    7650 8200
	0    1    1    0   
$EndComp
$Comp
L +BATT #PWR022
U 1 1 5764DFDA
P 7600 7950
F 0 "#PWR022" H 7600 7800 50  0001 C CNN
F 1 "+BATT" H 7543 7987 50  0000 R CNN
F 2 "" H 7600 7950 50  0000 C CNN
F 3 "" H 7600 7950 50  0000 C CNN
	1    7600 7950
	1    0    0    -1  
$EndComp
$Comp
L GND #PWR023
U 1 1 5764E092
P 7700 8000
F 0 "#PWR023" H 7700 7750 50  0001 C CNN
F 1 "GND" V 7705 7872 50  0000 R CNN
F 2 "" H 7700 8000 50  0000 C CNN
F 3 "" H 7700 8000 50  0000 C CNN
	1    7700 8000
	0    -1   -1   0   
$EndComp
Text Notes 2400 7500 0    60   ~ 0
Charger i=70mA
Text Notes 6550 7100 0    60   ~ 0
Buck Regulator\nVo=3.0V\nVmin=3.0V
Text Notes 1450 4850 1    60   ~ 0
Debug Conn\nTC2030-NL
Text Notes 7450 7750 0    60   ~ 0
JST-2\nBatt Conn
$Comp
L Ant U3
U 1 1 576A290A
P 5400 2100
F 0 "U3" V 5978 2022 60  0000 R CNN
F 1 "Ant" V 5872 2022 60  0000 R CNN
F 2 "nrfUmpad:Ant_no_trace" H 5400 2100 60  0001 C CNN
F 3 "http://www.johansontechnology.com/datasheets/antennas/2450AT18A100.pdf" H 5400 2100 60  0001 C CNN
F 4 "2450AT18A100E" H 5400 2100 60  0001 C CNN "MFPN"
F 5 "712-1005-1-ND" H 5400 2100 60  0001 C CNN "DIGIKEY"
F 6 "Johanson Technology Inc." H 5400 2100 60  0001 C CNN "MFN"
	1    5400 2100
	0    -1   -1   0   
$EndComp
Wire Wire Line
	4750 2600 5400 2600
Wire Wire Line
	5400 2600 5400 2550
Wire Wire Line
	5400 2350 5400 2300
$Comp
L LP5221YQ U5
U 1 1 576B921C
P 10150 6700
F 0 "U5" H 10150 6650 50  0000 C CNN
F 1 "LP5221YQ" H 10150 6500 50  0000 C CNN
F 2 "nrfUmpad:WQFN-24" V 9900 6750 50  0001 C CNN
F 3 "http://www.ti.com/lit/ds/symlink/lp5521.pdf" V 9800 6750 50  0001 C CNN
F 4 "LP5521YQ/NOPB" H 10150 6700 60  0001 C CNN "MFPN"
F 5 "LP5521YQ/NOPBCT-ND" H 10150 6700 60  0001 C CNN "DIGIKEY"
F 6 "Texas Instruments" H 10150 6700 60  0001 C CNN "MFN"
	1    10150 6700
	1    0    0    -1  
$EndComp
$Comp
L LED_RGB D20
U 1 1 576BCA20
P 10250 7900
F 0 "D20" V 10296 7572 50  0000 R CNN
F 1 "LED_RGB" V 10205 7572 50  0000 R CNN
F 2 "LEDs:LED_RGB_PLLC-6" H 10250 7850 50  0001 C CNN
F 3 "http://www.osram-os.com/Graphics/XPic9/00134830_0.pdf" H 10250 7850 50  0001 C CNN
F 4 "LTRBGFSF-ABCB-QKYO-Z" H 10250 7900 60  0001 C CNN "MFPN"
F 5 "475-2899-1-ND" H 10250 7900 60  0001 C CNN "DIGIKEY"
F 6 "OSRAM OPTO SEMICONDUCTORS INC(VA)" H 10250 7900 60  0001 C CNN "MFN"
	1    10250 7900
	0    -1   -1   0   
$EndComp
$Comp
L GND #PWR024
U 1 1 576BD0F5
P 10250 8200
F 0 "#PWR024" H 10250 7950 50  0001 C CNN
F 1 "GND" H 10255 8027 50  0000 C CNN
F 2 "" H 10250 8200 50  0000 C CNN
F 3 "" H 10250 8200 50  0000 C CNN
	1    10250 8200
	1    0    0    -1  
$EndComp
Wire Wire Line
	10050 8100 10050 8200
Wire Wire Line
	10050 8200 10450 8200
Wire Wire Line
	10250 8200 10250 8100
Wire Wire Line
	10450 8200 10450 8100
Connection ~ 10250 8200
Wire Wire Line
	10100 7500 10100 7600
Wire Wire Line
	10100 7600 10050 7600
Wire Wire Line
	10050 7600 10050 7700
Wire Wire Line
	10200 7500 10200 7600
Wire Wire Line
	10200 7600 10250 7600
Wire Wire Line
	10250 7600 10250 7700
Wire Wire Line
	10300 7500 10300 7600
Wire Wire Line
	10300 7600 10450 7600
Wire Wire Line
	10450 7600 10450 7700
$Comp
L C_Small C22
U 1 1 576CCF23
P 11750 6550
F 0 "C22" H 11842 6596 50  0000 L CNN
F 1 "470nF" H 11842 6505 50  0000 L CNN
F 2 "Capacitors_SMD:C_0603" H 11750 6550 50  0001 C CNN
F 3 "" H 11750 6550 50  0000 C CNN
	1    11750 6550
	1    0    0    -1  
$EndComp
$Comp
L C_Small C21
U 1 1 576D6BFC
P 11550 6850
F 0 "C21" H 11642 6896 50  0000 L CNN
F 1 "470nF" H 11642 6805 50  0000 L CNN
F 2 "Capacitors_SMD:C_0603" H 11550 6850 50  0001 C CNN
F 3 "" H 11550 6850 50  0000 C CNN
	1    11550 6850
	1    0    0    -1  
$EndComp
Wire Wire Line
	11550 6750 11550 6500
Wire Wire Line
	11550 6500 11100 6500
Wire Wire Line
	11100 6600 11150 6600
Wire Wire Line
	11150 6600 11150 6700
Wire Wire Line
	11150 6700 11100 6700
$Comp
L +BATT #PWR025
U 1 1 576DBE7A
P 11150 6800
F 0 "#PWR025" H 11150 6650 50  0001 C CNN
F 1 "+BATT" V 11100 6950 50  0000 C CNN
F 2 "" H 11150 6800 50  0000 C CNN
F 3 "" H 11150 6800 50  0000 C CNN
	1    11150 6800
	0    1    1    0   
$EndComp
$Comp
L GND #PWR026
U 1 1 576DC819
P 11150 6600
F 0 "#PWR026" H 11150 6350 50  0001 C CNN
F 1 "GND" V 11155 6472 50  0000 R CNN
F 2 "" H 11150 6600 50  0000 C CNN
F 3 "" H 11150 6600 50  0000 C CNN
	1    11150 6600
	0    -1   -1   0   
$EndComp
Text GLabel 9100 6600 0    60   Input ~ 0
SDA
Text GLabel 9100 6800 0    60   Input ~ 0
SCL
$Comp
L C_Small C20
U 1 1 576E4869
P 10100 5750
F 0 "C20" H 10191 5704 50  0000 L CNN
F 1 "470nF" H 10191 5795 50  0000 L CNN
F 2 "Capacitors_SMD:C_0603" H 10100 5750 50  0001 C CNN
F 3 "" H 10100 5750 50  0000 C CNN
F 4 "-" H 10100 5750 60  0001 C CNN "MFPN"
F 5 "-" H 10100 5750 60  0001 C CNN "DIGIKEY"
F 6 "-" H 10100 5750 60  0001 C CNN "MFN"
	1    10100 5750
	-1   0    0    1   
$EndComp
$Comp
L GND #PWR027
U 1 1 576E552D
P 10100 5550
F 0 "#PWR027" H 10100 5300 50  0001 C CNN
F 1 "GND" H 10100 5400 50  0000 C CNN
F 2 "" H 10100 5550 50  0000 C CNN
F 3 "" H 10100 5550 50  0000 C CNN
	1    10100 5550
	-1   0    0    1   
$EndComp
Wire Wire Line
	10100 5850 10100 5900
Wire Wire Line
	10100 5550 10100 5650
Wire Wire Line
	10200 5900 10200 5600
Wire Wire Line
	10100 5600 10300 5600
Connection ~ 10100 5600
Wire Wire Line
	10300 5600 10300 5900
Connection ~ 10200 5600
$Comp
L GND #PWR028
U 1 1 576E9EC1
P 8800 6500
F 0 "#PWR028" H 8800 6250 50  0001 C CNN
F 1 "GND" V 8805 6372 50  0000 R CNN
F 2 "" H 8800 6500 50  0000 C CNN
F 3 "" H 8800 6500 50  0000 C CNN
	1    8800 6500
	0    1    1    0   
$EndComp
Wire Wire Line
	8800 6500 9200 6500
Wire Wire Line
	9200 6600 9100 6600
Wire Wire Line
	8850 6700 9200 6700
Wire Wire Line
	9200 6800 9100 6800
Text GLabel 9200 6400 0    60   Input ~ 0
LED_INT
Text GLabel 4750 3100 2    60   Input ~ 0
SDA
Text GLabel 4750 3200 2    60   Input ~ 0
SCL
Text GLabel 4750 3300 2    60   Input ~ 0
LED_INT
Wire Notes Line
	500  6600 8150 6600
Wire Notes Line
	8150 5300 8150 8650
Wire Notes Line
	12100 8650 500  8650
Text Notes 500  6750 0    60   ~ 0
Power Management
Wire Notes Line
	8150 5300 12100 5300
Wire Notes Line
	12100 500  12100 8650
Text Notes 8200 5450 0    60   ~ 0
RGB LED Driver
Wire Wire Line
	1600 7750 2300 7750
Wire Wire Line
	5400 2900 5400 2950
Wire Wire Line
	7600 7950 7600 8000
Wire Wire Line
	11150 6800 11100 6800
$Comp
L MX1A S5
U 1 1 57659644
P 7250 4800
F 0 "S5" H 7200 5050 60  0000 R CNN
F 1 "MX1A" H 6962 5022 60  0001 R CNN
F 2 "nrfUmpad:MX1A" H 7250 4800 60  0001 C CNN
F 3 "http://media.digikey.com/pdf/Data%20Sheets/Cherry%20PDFs/MX%20Series.pdf" H 7250 4800 60  0001 C CNN
F 4 "MX1A-E1NW" H 7250 4800 60  0001 C CNN "MFPN"
F 5 "CH197-ND" H 7250 4800 60  0001 C CNN "DIGIKEY"
F 6 "Cherry Americas LLC" H 7250 4800 60  0001 C CNN "MFN"
	1    7250 4800
	1    0    0    -1  
$EndComp
Wire Wire Line
	7450 4650 7500 4650
Wire Wire Line
	7750 4650 7700 4650
$Comp
L MX1A S4
U 1 1 5765F914
P 7250 4300
F 0 "S4" H 7200 4550 60  0000 R CNN
F 1 "MX1A" H 6962 4522 60  0001 R CNN
F 2 "nrfUmpad:MX1A" H 7250 4300 60  0001 C CNN
F 3 "http://media.digikey.com/pdf/Data%20Sheets/Cherry%20PDFs/MX%20Series.pdf" H 7250 4300 60  0001 C CNN
F 4 "MX1A-E1NW" H 7250 4300 60  0001 C CNN "MFPN"
F 5 "CH197-ND" H 7250 4300 60  0001 C CNN "DIGIKEY"
F 6 "Cherry Americas LLC" H 7250 4300 60  0001 C CNN "MFN"
	1    7250 4300
	1    0    0    -1  
$EndComp
Wire Wire Line
	7450 4150 7500 4150
Wire Wire Line
	7750 4150 7700 4150
$Comp
L MX1A S3
U 1 1 57660FD2
P 7250 3800
F 0 "S3" H 7200 4050 60  0000 R CNN
F 1 "MX1A" H 6962 4022 60  0001 R CNN
F 2 "nrfUmpad:MX1A" H 7250 3800 60  0001 C CNN
F 3 "http://media.digikey.com/pdf/Data%20Sheets/Cherry%20PDFs/MX%20Series.pdf" H 7250 3800 60  0001 C CNN
F 4 "MX1A-E1NW" H 7250 3800 60  0001 C CNN "MFPN"
F 5 "CH197-ND" H 7250 3800 60  0001 C CNN "DIGIKEY"
F 6 "Cherry Americas LLC" H 7250 3800 60  0001 C CNN "MFN"
	1    7250 3800
	1    0    0    -1  
$EndComp
Wire Wire Line
	7450 3650 7500 3650
Wire Wire Line
	7750 3650 7700 3650
Connection ~ 7750 4650
Connection ~ 7750 4150
$Comp
L MX1A S2
U 1 1 57663321
P 7250 3300
F 0 "S2" H 7200 3550 60  0000 R CNN
F 1 "MX1A" H 7300 3550 60  0001 R CNN
F 2 "nrfUmpad:MX1A" H 7250 3300 60  0001 C CNN
F 3 "http://media.digikey.com/pdf/Data%20Sheets/Cherry%20PDFs/MX%20Series.pdf" H 7250 3300 60  0001 C CNN
F 4 "MX1A-E1NW" H 7250 3300 60  0001 C CNN "MFPN"
F 5 "CH197-ND" H 7250 3300 60  0001 C CNN "DIGIKEY"
F 6 "Cherry Americas LLC" H 7250 3300 60  0001 C CNN "MFN"
	1    7250 3300
	1    0    0    -1  
$EndComp
Wire Wire Line
	7450 3150 7500 3150
Wire Wire Line
	7700 3150 7750 3150
$Comp
L MX1A S1
U 1 1 5766579B
P 7250 2800
F 0 "S1" H 7200 3050 60  0000 R CNN
F 1 "MX1A" H 6962 3022 60  0001 R CNN
F 2 "nrfUmpad:MX1A" H 7250 2800 60  0001 C CNN
F 3 "http://media.digikey.com/pdf/Data%20Sheets/Cherry%20PDFs/MX%20Series.pdf" H 7250 2800 60  0001 C CNN
F 4 "MX1A-E1NW" H 7250 2800 60  0001 C CNN "MFPN"
F 5 "CH197-ND" H 7250 2800 60  0001 C CNN "DIGIKEY"
F 6 "Cherry Americas LLC" H 7250 2800 60  0001 C CNN "MFN"
	1    7250 2800
	1    0    0    -1  
$EndComp
Wire Wire Line
	7450 2650 7500 2650
Wire Wire Line
	7700 2650 7750 2650
Wire Wire Line
	6700 4300 6700 3900
Wire Wire Line
	6600 4200 6600 3400
Wire Wire Line
	6600 3400 7050 3400
Wire Wire Line
	6500 4100 6500 2900
Wire Wire Line
	6500 2900 7050 2900
Wire Wire Line
	6400 4000 6400 2400
Wire Wire Line
	6400 2400 9600 2400
$Comp
L MX1A S10
U 1 1 5766C6A2
P 8100 4800
F 0 "S10" H 8100 5050 60  0000 R CNN
F 1 "MX1A" H 7812 5022 60  0001 R CNN
F 2 "nrfUmpad:MX1A" H 8100 4800 60  0001 C CNN
F 3 "http://media.digikey.com/pdf/Data%20Sheets/Cherry%20PDFs/MX%20Series.pdf" H 8100 4800 60  0001 C CNN
F 4 "MX1A-E1NW" H 8100 4800 60  0001 C CNN "MFPN"
F 5 "CH197-ND" H 8100 4800 60  0001 C CNN "DIGIKEY"
F 6 "Cherry Americas LLC" H 8100 4800 60  0001 C CNN "MFN"
	1    8100 4800
	1    0    0    -1  
$EndComp
Wire Wire Line
	8300 4650 8350 4650
Wire Wire Line
	8600 4650 8550 4650
Wire Wire Line
	8600 3650 8600 4900
$Comp
L MX1A S9
U 1 1 5766C6B7
P 8100 4300
F 0 "S9" H 8050 4550 60  0000 R CNN
F 1 "MX1A" H 7812 4522 60  0001 R CNN
F 2 "nrfUmpad:MX1A" H 8100 4300 60  0001 C CNN
F 3 "http://media.digikey.com/pdf/Data%20Sheets/Cherry%20PDFs/MX%20Series.pdf" H 8100 4300 60  0001 C CNN
F 4 "MX1A-E1NW" H 8100 4300 60  0001 C CNN "MFPN"
F 5 "CH197-ND" H 8100 4300 60  0001 C CNN "DIGIKEY"
F 6 "Cherry Americas LLC" H 8100 4300 60  0001 C CNN "MFN"
	1    8100 4300
	1    0    0    -1  
$EndComp
Wire Wire Line
	8300 4150 8350 4150
Wire Wire Line
	8550 4150 8600 4150
$Comp
L MX1A S8
U 1 1 5766C6C8
P 8100 3800
F 0 "S8" H 8050 4050 60  0000 R CNN
F 1 "MX1A" H 7812 4022 60  0001 R CNN
F 2 "nrfUmpad:MX1A" H 8100 3800 60  0001 C CNN
F 3 "http://media.digikey.com/pdf/Data%20Sheets/Cherry%20PDFs/MX%20Series.pdf" H 8100 3800 60  0001 C CNN
F 4 "MX1A-E1NW" H 8100 3800 60  0001 C CNN "MFPN"
F 5 "CH197-ND" H 8100 3800 60  0001 C CNN "DIGIKEY"
F 6 "Cherry Americas LLC" H 8100 3800 60  0001 C CNN "MFN"
	1    8100 3800
	1    0    0    -1  
$EndComp
Wire Wire Line
	8300 3650 8350 3650
Wire Wire Line
	8600 3650 8550 3650
Connection ~ 8600 4650
Connection ~ 8600 4150
Wire Wire Line
	8600 3150 8600 4300
$Comp
L MX1A S7
U 1 1 5766C6DD
P 8100 3300
F 0 "S7" H 8050 3550 60  0000 R CNN
F 1 "MX1A" H 7812 3522 60  0001 R CNN
F 2 "nrfUmpad:MX1A" H 8100 3300 60  0001 C CNN
F 3 "http://media.digikey.com/pdf/Data%20Sheets/Cherry%20PDFs/MX%20Series.pdf" H 8100 3300 60  0001 C CNN
F 4 "MX1A-E1NW" H 8100 3300 60  0001 C CNN "MFPN"
F 5 "CH197-ND" H 8100 3300 60  0001 C CNN "DIGIKEY"
F 6 "Cherry Americas LLC" H 8100 3300 60  0001 C CNN "MFN"
	1    8100 3300
	1    0    0    -1  
$EndComp
Wire Wire Line
	8300 3150 8350 3150
Wire Wire Line
	8550 3150 8600 3150
Wire Wire Line
	8600 2650 8600 3800
$Comp
L MX1A S6
U 1 1 5766C6EF
P 8100 2800
F 0 "S6" H 8050 3050 60  0000 R CNN
F 1 "MX1A" H 7812 3022 60  0001 R CNN
F 2 "nrfUmpad:MX1A" H 8100 2800 60  0001 C CNN
F 3 "http://media.digikey.com/pdf/Data%20Sheets/Cherry%20PDFs/MX%20Series.pdf" H 8100 2800 60  0001 C CNN
F 4 "MX1A-E1NW" H 8100 2800 60  0001 C CNN "MFPN"
F 5 "CH197-ND" H 8100 2800 60  0001 C CNN "DIGIKEY"
F 6 "Cherry Americas LLC" H 8100 2800 60  0001 C CNN "MFN"
	1    8100 2800
	1    0    0    -1  
$EndComp
Wire Wire Line
	8300 2650 8350 2650
Wire Wire Line
	8550 2650 8600 2650
Wire Wire Line
	7000 2900 9600 2900
Connection ~ 7050 2400
Connection ~ 7000 2900
Connection ~ 6950 3400
Connection ~ 7050 3900
Wire Wire Line
	7750 2650 7750 4800
Connection ~ 7750 3650
Connection ~ 7750 3150
$Comp
L MX1A S14
U 1 1 57670F90
P 8950 4300
F 0 "S14" H 8950 4550 60  0000 R CNN
F 1 "MX1A" H 8662 4522 60  0001 R CNN
F 2 "nrfUmpad:MX1A" H 8950 4300 60  0001 C CNN
F 3 "http://media.digikey.com/pdf/Data%20Sheets/Cherry%20PDFs/MX%20Series.pdf" H 8950 4300 60  0001 C CNN
F 4 "MX1A-E1NW" H 8950 4300 60  0001 C CNN "MFPN"
F 5 "CH197-ND" H 8950 4300 60  0001 C CNN "DIGIKEY"
F 6 "Cherry Americas LLC" H 8950 4300 60  0001 C CNN "MFN"
	1    8950 4300
	1    0    0    -1  
$EndComp
Wire Wire Line
	9150 4150 9200 4150
Wire Wire Line
	9450 4150 9400 4150
$Comp
L MX1A S13
U 1 1 57670FA1
P 8950 3800
F 0 "S13" H 8950 4050 60  0000 R CNN
F 1 "MX1A" H 8662 4022 60  0001 R CNN
F 2 "nrfUmpad:MX1A" H 8950 3800 60  0001 C CNN
F 3 "http://media.digikey.com/pdf/Data%20Sheets/Cherry%20PDFs/MX%20Series.pdf" H 8950 3800 60  0001 C CNN
F 4 "MX1A-E1NW" H 8950 3800 60  0001 C CNN "MFPN"
F 5 "CH197-ND" H 8950 3800 60  0001 C CNN "DIGIKEY"
F 6 "Cherry Americas LLC" H 8950 3800 60  0001 C CNN "MFN"
	1    8950 3800
	1    0    0    -1  
$EndComp
Wire Wire Line
	9150 3650 9200 3650
Wire Wire Line
	9450 3650 9400 3650
Connection ~ 9450 4150
$Comp
L MX1A S12
U 1 1 57670FB5
P 8950 3300
F 0 "S12" H 8950 3550 60  0000 R CNN
F 1 "MX1A" H 8662 3522 60  0001 R CNN
F 2 "nrfUmpad:MX1A" H 8950 3300 60  0001 C CNN
F 3 "http://media.digikey.com/pdf/Data%20Sheets/Cherry%20PDFs/MX%20Series.pdf" H 8950 3300 60  0001 C CNN
F 4 "MX1A-E1NW" H 8950 3300 60  0001 C CNN "MFPN"
F 5 "CH197-ND" H 8950 3300 60  0001 C CNN "DIGIKEY"
F 6 "Cherry Americas LLC" H 8950 3300 60  0001 C CNN "MFN"
	1    8950 3300
	1    0    0    -1  
$EndComp
Wire Wire Line
	9150 3150 9200 3150
Wire Wire Line
	9400 3150 9450 3150
$Comp
L MX1A S11
U 1 1 57670FC7
P 8950 2800
F 0 "S11" H 8950 3050 60  0000 R CNN
F 1 "MX1A" H 8662 3022 60  0001 R CNN
F 2 "nrfUmpad:MX1A" H 8950 2800 60  0001 C CNN
F 3 "http://media.digikey.com/pdf/Data%20Sheets/Cherry%20PDFs/MX%20Series.pdf" H 8950 2800 60  0001 C CNN
F 4 "MX1A-E1NW" H 8950 2800 60  0001 C CNN "MFPN"
F 5 "CH197-ND" H 8950 2800 60  0001 C CNN "DIGIKEY"
F 6 "Cherry Americas LLC" H 8950 2800 60  0001 C CNN "MFN"
	1    8950 2800
	1    0    0    -1  
$EndComp
Wire Wire Line
	9150 2650 9200 2650
Wire Wire Line
	9400 2650 9450 2650
Connection ~ 7900 2400
Connection ~ 7900 2900
Connection ~ 7900 3400
Connection ~ 7900 3900
Wire Wire Line
	9450 2650 9450 5000
Connection ~ 9450 3150
Connection ~ 9450 3650
Wire Wire Line
	9450 5000 6500 5000
Wire Wire Line
	6700 4500 6700 4800
Wire Wire Line
	6700 4800 7750 4800
Wire Wire Line
	6600 4600 6600 4900
Wire Wire Line
	6600 4900 8600 4900
$Comp
L MX1A S20
U 1 1 576793D8
P 9800 4800
F 0 "S20" H 9800 5050 60  0000 R CNN
F 1 "MX1A" H 9512 5022 60  0001 R CNN
F 2 "nrfUmpad:MX1A" H 9800 4800 60  0001 C CNN
F 3 "http://media.digikey.com/pdf/Data%20Sheets/Cherry%20PDFs/MX%20Series.pdf" H 9800 4800 60  0001 C CNN
F 4 "MX1A-E1NW" H 9800 4800 60  0001 C CNN "MFPN"
F 5 "CH197-ND" H 9800 4800 60  0001 C CNN "DIGIKEY"
F 6 "Cherry Americas LLC" H 9800 4800 60  0001 C CNN "MFN"
	1    9800 4800
	1    0    0    -1  
$EndComp
Wire Wire Line
	10000 4650 10050 4650
Wire Wire Line
	10300 4650 10250 4650
Connection ~ 10300 4650
$Comp
L MX1A S17
U 1 1 5767940D
P 9800 3300
F 0 "S17" H 9800 3550 60  0000 R CNN
F 1 "MX1A" H 9512 3522 60  0001 R CNN
F 2 "nrfUmpad:MX1A" H 9800 3300 60  0001 C CNN
F 3 "http://media.digikey.com/pdf/Data%20Sheets/Cherry%20PDFs/MX%20Series.pdf" H 9800 3300 60  0001 C CNN
F 4 "MX1A-E1NW" H 9800 3300 60  0001 C CNN "MFPN"
F 5 "CH197-ND" H 9800 3300 60  0001 C CNN "DIGIKEY"
F 6 "Cherry Americas LLC" H 9800 3300 60  0001 C CNN "MFN"
	1    9800 3300
	1    0    0    -1  
$EndComp
Wire Wire Line
	10000 3150 10050 3150
Wire Wire Line
	10250 3150 10300 3150
$Comp
L MX1A S16
U 1 1 5767941E
P 9800 2800
F 0 "S16" H 9800 3050 60  0000 R CNN
F 1 "MX1A" H 9512 3022 60  0001 R CNN
F 2 "nrfUmpad:MX1A" H 9800 2800 60  0001 C CNN
F 3 "http://media.digikey.com/pdf/Data%20Sheets/Cherry%20PDFs/MX%20Series.pdf" H 9800 2800 60  0001 C CNN
F 4 "MX1A-E1NW" H 9800 2800 60  0001 C CNN "MFPN"
F 5 "CH197-ND" H 9800 2800 60  0001 C CNN "DIGIKEY"
F 6 "Cherry Americas LLC" H 9800 2800 60  0001 C CNN "MFN"
	1    9800 2800
	1    0    0    -1  
$EndComp
Wire Wire Line
	10000 2650 10050 2650
Wire Wire Line
	10250 2650 10300 2650
Wire Wire Line
	10300 2650 10300 5100
Connection ~ 10300 3150
Wire Wire Line
	10300 5100 6400 5100
Wire Wire Line
	6400 5100 6400 4900
Connection ~ 8750 2400
Connection ~ 8750 2900
Wire Wire Line
	4750 4400 9600 4400
Connection ~ 7900 4400
Connection ~ 7050 4400
Wire Wire Line
	11100 6900 11450 6900
Wire Wire Line
	11450 6900 11450 6700
Wire Wire Line
	11450 6700 11750 6700
Wire Wire Line
	11750 6700 11750 6650
Wire Wire Line
	11100 7000 11550 7000
Wire Wire Line
	11550 7000 11550 6950
Wire Wire Line
	11750 6450 11750 6400
Wire Wire Line
	11750 6400 11100 6400
$Comp
L D_Schottky_Small D14
U 1 1 576EDC46
P 8450 4650
F 0 "D14" H 8400 4730 50  0000 L CNN
F 1 "D_Schottky_Small" H 8170 4570 50  0001 L CNN
F 2 "LEDs:LED_0603" V 8450 4650 50  0001 C CNN
F 3 "http://rohmfs.rohm.com/en/products/databook/datasheet/discrete/diode/detection_schottky/rb886g.pdf" V 8450 4650 50  0001 C CNN
F 4 "RB886GT2R" H 8450 4650 60  0001 C CNN "MFPN"
F 5 "RB886GT2RCT-ND" H 8450 4650 60  0001 C CNN "DIGIKEY"
F 6 "Rohm Semiconductor" H 8450 4650 60  0001 C CNN "MFN"
	1    8450 4650
	-1   0    0    1   
$EndComp
$Comp
L D_Schottky_Small D25
U 1 1 576EDE75
P 10150 4650
F 0 "D25" H 10100 4730 50  0000 L CNN
F 1 "D_Schottky_Small" H 9870 4570 50  0001 L CNN
F 2 "LEDs:LED_0603" V 10150 4650 50  0001 C CNN
F 3 "http://rohmfs.rohm.com/en/products/databook/datasheet/discrete/diode/detection_schottky/rb886g.pdf" V 10150 4650 50  0001 C CNN
F 4 "RB886GT2R" H 10150 4650 60  0001 C CNN "MFPN"
F 5 "RB886GT2RCT-ND" H 10150 4650 60  0001 C CNN "DIGIKEY"
F 6 "Rohm Semiconductor" H 10150 4650 60  0001 C CNN "MFN"
	1    10150 4650
	-1   0    0    1   
$EndComp
$Comp
L D_Schottky_Small D18
U 1 1 576EE0D2
P 9300 4150
F 0 "D18" H 9250 4230 50  0000 L CNN
F 1 "D_Schottky_Small" H 9020 4070 50  0001 L CNN
F 2 "LEDs:LED_0603" V 9300 4150 50  0001 C CNN
F 3 "http://rohmfs.rohm.com/en/products/databook/datasheet/discrete/diode/detection_schottky/rb886g.pdf" V 9300 4150 50  0001 C CNN
F 4 "RB886GT2R" H 9300 4150 60  0001 C CNN "MFPN"
F 5 "RB886GT2RCT-ND" H 9300 4150 60  0001 C CNN "DIGIKEY"
F 6 "Rohm Semiconductor" H 9300 4150 60  0001 C CNN "MFN"
	1    9300 4150
	-1   0    0    1   
$EndComp
$Comp
L D_Schottky_Small D13
U 1 1 576EE1E8
P 8450 4150
F 0 "D13" H 8400 4230 50  0000 L CNN
F 1 "D_Schottky_Small" H 8170 4070 50  0001 L CNN
F 2 "LEDs:LED_0603" V 8450 4150 50  0001 C CNN
F 3 "http://rohmfs.rohm.com/en/products/databook/datasheet/discrete/diode/detection_schottky/rb886g.pdf" V 8450 4150 50  0001 C CNN
F 4 "RB886GT2R" H 8450 4150 60  0001 C CNN "MFPN"
F 5 "RB886GT2RCT-ND" H 8450 4150 60  0001 C CNN "DIGIKEY"
F 6 "Rohm Semiconductor" H 8450 4150 60  0001 C CNN "MFN"
	1    8450 4150
	-1   0    0    1   
$EndComp
$Comp
L D_Schottky_Small D8
U 1 1 576EE3E5
P 7600 4150
F 0 "D8" H 7550 4230 50  0000 L CNN
F 1 "D_Schottky_Small" H 7320 4070 50  0001 L CNN
F 2 "LEDs:LED_0603" V 7600 4150 50  0001 C CNN
F 3 "http://rohmfs.rohm.com/en/products/databook/datasheet/discrete/diode/detection_schottky/rb886g.pdf" V 7600 4150 50  0001 C CNN
F 4 "RB886GT2R" H 7600 4150 60  0001 C CNN "MFPN"
F 5 "RB886GT2RCT-ND" H 7600 4150 60  0001 C CNN "DIGIKEY"
F 6 "Rohm Semiconductor" H 7600 4150 60  0001 C CNN "MFN"
	1    7600 4150
	-1   0    0    1   
$EndComp
$Comp
L D_Schottky_Small D7
U 1 1 576EE509
P 7600 3650
F 0 "D7" H 7550 3730 50  0000 L CNN
F 1 "D_Schottky_Small" H 7320 3570 50  0001 L CNN
F 2 "LEDs:LED_0603" V 7600 3650 50  0001 C CNN
F 3 "http://rohmfs.rohm.com/en/products/databook/datasheet/discrete/diode/detection_schottky/rb886g.pdf" V 7600 3650 50  0001 C CNN
F 4 "RB886GT2R" H 7600 3650 60  0001 C CNN "MFPN"
F 5 "RB886GT2RCT-ND" H 7600 3650 60  0001 C CNN "DIGIKEY"
F 6 "Rohm Semiconductor" H 7600 3650 60  0001 C CNN "MFN"
	1    7600 3650
	-1   0    0    1   
$EndComp
$Comp
L D_Schottky_Small D12
U 1 1 576EE61A
P 8450 3650
F 0 "D12" H 8400 3730 50  0000 L CNN
F 1 "D_Schottky_Small" H 8170 3570 50  0001 L CNN
F 2 "LEDs:LED_0603" V 8450 3650 50  0001 C CNN
F 3 "http://rohmfs.rohm.com/en/products/databook/datasheet/discrete/diode/detection_schottky/rb886g.pdf" V 8450 3650 50  0001 C CNN
F 4 "RB886GT2R" H 8450 3650 60  0001 C CNN "MFPN"
F 5 "RB886GT2RCT-ND" H 8450 3650 60  0001 C CNN "DIGIKEY"
F 6 "Rohm Semiconductor" H 8450 3650 60  0001 C CNN "MFN"
	1    8450 3650
	-1   0    0    1   
$EndComp
$Comp
L D_Schottky_Small D17
U 1 1 576EE861
P 9300 3650
F 0 "D17" H 9250 3730 50  0000 L CNN
F 1 "D_Schottky_Small" H 9020 3570 50  0001 L CNN
F 2 "LEDs:LED_0603" V 9300 3650 50  0001 C CNN
F 3 "http://rohmfs.rohm.com/en/products/databook/datasheet/discrete/diode/detection_schottky/rb886g.pdf" V 9300 3650 50  0001 C CNN
F 4 "RB886GT2R" H 9300 3650 60  0001 C CNN "MFPN"
F 5 "RB886GT2RCT-ND" H 9300 3650 60  0001 C CNN "DIGIKEY"
F 6 "Rohm Semiconductor" H 9300 3650 60  0001 C CNN "MFN"
	1    9300 3650
	-1   0    0    1   
$EndComp
$Comp
L D_Schottky_Small D22
U 1 1 576F0389
P 10150 3150
F 0 "D22" H 10100 3230 50  0000 L CNN
F 1 "D_Schottky_Small" H 9870 3070 50  0001 L CNN
F 2 "LEDs:LED_0603" V 10150 3150 50  0001 C CNN
F 3 "http://rohmfs.rohm.com/en/products/databook/datasheet/discrete/diode/detection_schottky/rb886g.pdf" V 10150 3150 50  0001 C CNN
F 4 "RB886GT2R" H 10150 3150 60  0001 C CNN "MFPN"
F 5 "RB886GT2RCT-ND" H 10150 3150 60  0001 C CNN "DIGIKEY"
F 6 "Rohm Semiconductor" H 10150 3150 60  0001 C CNN "MFN"
	1    10150 3150
	-1   0    0    1   
$EndComp
$Comp
L D_Schottky_Small D16
U 1 1 576F04B2
P 9300 3150
F 0 "D16" H 9250 3230 50  0000 L CNN
F 1 "D_Schottky_Small" H 9020 3070 50  0001 L CNN
F 2 "LEDs:LED_0603" V 9300 3150 50  0001 C CNN
F 3 "http://rohmfs.rohm.com/en/products/databook/datasheet/discrete/diode/detection_schottky/rb886g.pdf" V 9300 3150 50  0001 C CNN
F 4 "RB886GT2R" H 9300 3150 60  0001 C CNN "MFPN"
F 5 "RB886GT2RCT-ND" H 9300 3150 60  0001 C CNN "DIGIKEY"
F 6 "Rohm Semiconductor" H 9300 3150 60  0001 C CNN "MFN"
	1    9300 3150
	-1   0    0    1   
$EndComp
$Comp
L D_Schottky_Small D11
U 1 1 576F05DE
P 8450 3150
F 0 "D11" H 8400 3230 50  0000 L CNN
F 1 "D_Schottky_Small" H 8170 3070 50  0001 L CNN
F 2 "LEDs:LED_0603" V 8450 3150 50  0001 C CNN
F 3 "http://rohmfs.rohm.com/en/products/databook/datasheet/discrete/diode/detection_schottky/rb886g.pdf" V 8450 3150 50  0001 C CNN
F 4 "RB886GT2R" H 8450 3150 60  0001 C CNN "MFPN"
F 5 "RB886GT2RCT-ND" H 8450 3150 60  0001 C CNN "DIGIKEY"
F 6 "Rohm Semiconductor" H 8450 3150 60  0001 C CNN "MFN"
	1    8450 3150
	-1   0    0    1   
$EndComp
$Comp
L D_Schottky_Small D6
U 1 1 576F1FBF
P 7600 3150
F 0 "D6" H 7550 3230 50  0000 L CNN
F 1 "D_Schottky_Small" H 7320 3070 50  0001 L CNN
F 2 "LEDs:LED_0603" V 7600 3150 50  0001 C CNN
F 3 "http://rohmfs.rohm.com/en/products/databook/datasheet/discrete/diode/detection_schottky/rb886g.pdf" V 7600 3150 50  0001 C CNN
F 4 "RB886GT2R" H 7600 3150 60  0001 C CNN "MFPN"
F 5 "RB886GT2RCT-ND" H 7600 3150 60  0001 C CNN "DIGIKEY"
F 6 "Rohm Semiconductor" H 7600 3150 60  0001 C CNN "MFN"
	1    7600 3150
	-1   0    0    1   
$EndComp
$Comp
L D_Schottky_Small D5
U 1 1 576F20F7
P 7600 2650
F 0 "D5" H 7550 2730 50  0000 L CNN
F 1 "D_Schottky_Small" H 7320 2570 50  0001 L CNN
F 2 "LEDs:LED_0603" V 7600 2650 50  0001 C CNN
F 3 "http://rohmfs.rohm.com/en/products/databook/datasheet/discrete/diode/detection_schottky/rb886g.pdf" V 7600 2650 50  0001 C CNN
F 4 "RB886GT2R" H 7600 2650 60  0001 C CNN "MFPN"
F 5 "RB886GT2RCT-ND" H 7600 2650 60  0001 C CNN "DIGIKEY"
F 6 "Rohm Semiconductor" H 7600 2650 60  0001 C CNN "MFN"
	1    7600 2650
	-1   0    0    1   
$EndComp
$Comp
L D_Schottky_Small D10
U 1 1 576F221C
P 8450 2650
F 0 "D10" H 8400 2730 50  0000 L CNN
F 1 "D_Schottky_Small" H 8170 2570 50  0001 L CNN
F 2 "LEDs:LED_0603" V 8450 2650 50  0001 C CNN
F 3 "http://rohmfs.rohm.com/en/products/databook/datasheet/discrete/diode/detection_schottky/rb886g.pdf" V 8450 2650 50  0001 C CNN
F 4 "RB886GT2R" H 8450 2650 60  0001 C CNN "MFPN"
F 5 "RB886GT2RCT-ND" H 8450 2650 60  0001 C CNN "DIGIKEY"
F 6 "Rohm Semiconductor" H 8450 2650 60  0001 C CNN "MFN"
	1    8450 2650
	-1   0    0    1   
$EndComp
$Comp
L D_Schottky_Small D15
U 1 1 576F37F8
P 9300 2650
F 0 "D15" H 9250 2730 50  0000 L CNN
F 1 "D_Schottky_Small" H 9020 2570 50  0001 L CNN
F 2 "LEDs:LED_0603" V 9300 2650 50  0001 C CNN
F 3 "http://rohmfs.rohm.com/en/products/databook/datasheet/discrete/diode/detection_schottky/rb886g.pdf" V 9300 2650 50  0001 C CNN
F 4 "RB886GT2R" H 9300 2650 60  0001 C CNN "MFPN"
F 5 "RB886GT2RCT-ND" H 9300 2650 60  0001 C CNN "DIGIKEY"
F 6 "Rohm Semiconductor" H 9300 2650 60  0001 C CNN "MFN"
	1    9300 2650
	-1   0    0    1   
$EndComp
$Comp
L D_Schottky_Small D21
U 1 1 576F3949
P 10150 2650
F 0 "D21" H 10100 2730 50  0000 L CNN
F 1 "D_Schottky_Small" H 9870 2570 50  0001 L CNN
F 2 "LEDs:LED_0603" V 10150 2650 50  0001 C CNN
F 3 "http://rohmfs.rohm.com/en/products/databook/datasheet/discrete/diode/detection_schottky/rb886g.pdf" V 10150 2650 50  0001 C CNN
F 4 "RB886GT2R" H 10150 2650 60  0001 C CNN "MFPN"
F 5 "RB886GT2RCT-ND" H 10150 2650 60  0001 C CNN "DIGIKEY"
F 6 "Rohm Semiconductor" H 10150 2650 60  0001 C CNN "MFN"
	1    10150 2650
	-1   0    0    1   
$EndComp
$Comp
L D_Schottky_Small D4
U 1 1 576F6D26
P 5950 5050
F 0 "D4" H 5900 5130 50  0000 L CNN
F 1 "D_Schottky_Small" H 5670 4970 50  0001 L CNN
F 2 "LEDs:LED_0603" V 5950 5050 50  0001 C CNN
F 3 "http://rohmfs.rohm.com/en/products/databook/datasheet/discrete/diode/detection_schottky/rb886g.pdf" V 5950 5050 50  0001 C CNN
F 4 "RB886GT2R" H 5950 5050 60  0001 C CNN "MFPN"
F 5 "RB886GT2RCT-ND" H 5950 5050 60  0001 C CNN "DIGIKEY"
F 6 "Rohm Semiconductor" H 5950 5050 60  0001 C CNN "MFN"
	1    5950 5050
	0    -1   -1   0   
$EndComp
$Comp
L D_Schottky_Small D3
U 1 1 576F6EE6
P 5750 5050
F 0 "D3" H 5700 5130 50  0000 L CNN
F 1 "D_Schottky_Small" H 5470 4970 50  0001 L CNN
F 2 "LEDs:LED_0603" V 5750 5050 50  0001 C CNN
F 3 "http://rohmfs.rohm.com/en/products/databook/datasheet/discrete/diode/detection_schottky/rb886g.pdf" V 5750 5050 50  0001 C CNN
F 4 "RB886GT2R" H 5750 5050 60  0001 C CNN "MFPN"
F 5 "RB886GT2RCT-ND" H 5750 5050 60  0001 C CNN "DIGIKEY"
F 6 "Rohm Semiconductor" H 5750 5050 60  0001 C CNN "MFN"
	1    5750 5050
	0    -1   -1   0   
$EndComp
$Comp
L D_Schottky_Small D2
U 1 1 576F7002
P 5550 5050
F 0 "D2" H 5500 5130 50  0000 L CNN
F 1 "D_Schottky_Small" H 5270 4970 50  0001 L CNN
F 2 "LEDs:LED_0603" V 5550 5050 50  0001 C CNN
F 3 "http://rohmfs.rohm.com/en/products/databook/datasheet/discrete/diode/detection_schottky/rb886g.pdf" V 5550 5050 50  0001 C CNN
F 4 "RB886GT2R" H 5550 5050 60  0001 C CNN "MFPN"
F 5 "RB886GT2RCT-ND" H 5550 5050 60  0001 C CNN "DIGIKEY"
F 6 "Rohm Semiconductor" H 5550 5050 60  0001 C CNN "MFN"
	1    5550 5050
	0    -1   -1   0   
$EndComp
$Comp
L D_Schottky_Small D1
U 1 1 576F7121
P 5350 5050
F 0 "D1" H 5300 5130 50  0000 L CNN
F 1 "D_Schottky_Small" H 5070 4970 50  0001 L CNN
F 2 "LEDs:LED_0603" V 5350 5050 50  0001 C CNN
F 3 "http://rohmfs.rohm.com/en/products/databook/datasheet/discrete/diode/detection_schottky/rb886g.pdf" V 5350 5050 50  0001 C CNN
F 4 "RB886GT2R" H 5350 5050 60  0001 C CNN "MFPN"
F 5 "RB886GT2RCT-ND" H 5350 5050 60  0001 C CNN "DIGIKEY"
F 6 "Rohm Semiconductor" H 5350 5050 60  0001 C CNN "MFN"
	1    5350 5050
	0    -1   -1   0   
$EndComp
$Comp
L USB-MICRO-B CON1
U 1 1 576FC145
P 1100 7700
F 0 "CON1" H 1150 7250 50  0000 R CNN
F 1 "USB-MICRO-B" H 1350 7350 50  0000 R CNN
F 2 "nrfUmpad:USB_Micro" H 1100 7600 50  0001 C CNN
F 3 "" H 1100 7600 50  0000 C CNN
F 4 "10118193-0001LF" H 1100 7700 60  0001 C CNN "MFPN"
F 5 "609-4616-1-ND" H 1100 7700 60  0001 C CNN "DIGIKEY"
F 6 "Amphenol FCI" H 1100 7700 60  0001 C CNN "MFN"
	1    1100 7700
	0    1    1    0   
$EndComp
$Comp
L GND #PWR030
U 1 1 57700D1C
P 1100 8300
F 0 "#PWR030" H 1100 8050 50  0001 C CNN
F 1 "GND" V 1105 8172 50  0000 R CNN
F 2 "" H 1100 8300 50  0000 C CNN
F 3 "" H 1100 8300 50  0000 C CNN
	1    1100 8300
	1    0    0    -1  
$EndComp
Wire Wire Line
	900  8200 900  8300
Wire Wire Line
	900  8300 1300 8300
Wire Wire Line
	1000 8200 1000 8300
Connection ~ 1000 8300
Wire Wire Line
	1200 8300 1200 8200
Connection ~ 1100 8300
Wire Wire Line
	1300 8300 1300 8200
Connection ~ 1200 8300
Wire Wire Line
	1600 7200 1600 7750
Wire Wire Line
	1600 7200 1300 7200
Wire Wire Line
	1900 7100 900  7100
Wire Wire Line
	900  7100 900  7200
Wire Wire Line
	6700 3900 8750 3900
Wire Wire Line
	6950 3400 8750 3400
Wire Wire Line
	4850 5000 4850 5150
Wire Wire Line
	3150 7900 3200 7900
Wire Wire Line
	3200 7900 3200 8050
Connection ~ 3200 8050
Wire Wire Line
	1450 5500 1950 5500
$Comp
L C C11
U 1 1 576778EA
P 1700 2500
F 0 "C11" V 1448 2500 50  0000 C CNN
F 1 "12pF" V 1539 2500 50  0000 C CNN
F 2 "Capacitors_SMD:C_0402" H 1738 2350 50  0001 C CNN
F 3 "http://media.digikey.com/pdf/Data%20Sheets/Murata%20PDFs/GRM%20Series%20Data.pdf" H 1700 2500 50  0001 C CNN
F 4 "GRM1555C1H120GA01D" H 1700 2500 60  0001 C CNN "MFPN"
F 5 "490-6197-1-ND" H 1700 2500 60  0001 C CNN "DIGIKEY"
F 6 "Yageo" H 1700 2500 60  0001 C CNN "MFN"
F 7 "Capacitor NP0 ±2%" H 1700 2500 60  0001 C CNN "Description"
F 8 "490-6197-1-ND" H 1700 2500 60  0001 C CNN "Distributor 1"
	1    1700 2500
	0    1    1    0   
$EndComp
$Comp
L C C12
U 1 1 5767E8A8
P 1700 2700
F 0 "C12" V 1860 2700 50  0000 C CNN
F 1 "12pF" V 1951 2700 50  0000 C CNN
F 2 "Capacitors_SMD:C_0402" H 1738 2550 50  0001 C CNN
F 3 "http://media.digikey.com/pdf/Data%20Sheets/Murata%20PDFs/GRM%20Series%20Data.pdf" H 1700 2700 50  0001 C CNN
F 4 "GRM1555C1H120GA01D" H 1700 2700 60  0001 C CNN "MFPN"
F 5 "490-6197-1-ND" H 1700 2700 60  0001 C CNN "DIGIKEY"
F 6 "Yageo" H 1700 2700 60  0001 C CNN "MFN"
F 7 "Capacitor NP0 ±2%" H 1700 2700 60  0001 C CNN "Description"
F 8 "490-6197-1-ND" H 1700 2700 60  0001 C CNN "Distributor 1"
	1    1700 2700
	0    1    1    0   
$EndComp
$Comp
L C C8
U 1 1 5768139E
P 3050 1850
F 0 "C8" H 3075 1950 50  0000 L CNN
F 1 "100nF" H 3075 1750 50  0000 L CNN
F 2 "Capacitors_SMD:C_0402" H 3088 1700 50  0001 C CNN
F 3 "" H 3050 1850 50  0000 C CNN
F 4 "CC0402KRX7R6BB104" H 3050 1850 60  0001 C CNN "MFPN"
F 5 "311-1345-1-ND" H 3050 1850 60  0001 C CNN "DIGIKEY"
F 6 "Yageo" H 3050 1850 60  0001 C CNN "MFN"
F 7 "Capacitor X7R ±10%" H 3050 1850 60  0001 C CNN "Description"
	1    3050 1850
	1    0    0    -1  
$EndComp
$Comp
L C_Small C13
U 1 1 57683D99
P 1900 7550
F 0 "C13" H 1925 7650 50  0000 L CNN
F 1 "4.7uF" H 1925 7450 50  0000 L CNN
F 2 "Capacitors_SMD:C_0603" H 1938 7400 50  0001 C CNN
F 3 "" H 1900 7550 50  0000 C CNN
F 4 "GRM188R61C475KE11D" H 1900 7550 60  0001 C CNN "MFPN"
F 5 "490-10730-1-ND" H 1900 7550 60  0001 C CNN "DIGIKEY"
F 6 "Murata Electronics North America" H 1900 7550 60  0001 C CNN "MFN"
F 7 "Capacitor X5R ±10%" H 1900 7550 60  0001 C CNN "Description"
	1    1900 7550
	1    0    0    -1  
$EndComp
Wire Wire Line
	1900 7100 1900 7450
$Comp
L C_Small C14
U 1 1 57687181
P 1950 8050
F 0 "C14" H 1975 8150 50  0000 L CNN
F 1 "4.7uF" H 1975 7950 50  0000 L CNN
F 2 "Capacitors_SMD:C_0603" H 1988 7900 50  0001 C CNN
F 3 "" H 1950 8050 50  0000 C CNN
F 4 "GRM188R61C475KE11D" H 1950 8050 60  0001 C CNN "MFPN"
F 5 "490-10730-1-ND" H 1950 8050 60  0001 C CNN "DIGIKEY"
F 6 "Murata Electronics North America" H 1950 8050 60  0001 C CNN "MFN"
F 7 "Capacitor X5R ±10%" H 1950 8050 60  0001 C CNN "Description"
	1    1950 8050
	1    0    0    -1  
$EndComp
$Comp
L C_Small C18
U 1 1 5768B2A2
P 6950 7450
F 0 "C18" V 6900 7250 50  0000 L CNN
F 1 "4.7uF" V 7000 7200 50  0000 L CNN
F 2 "Capacitors_SMD:C_0603" H 6988 7300 50  0001 C CNN
F 3 "" H 6950 7450 50  0000 C CNN
F 4 "GRM188R61C475KE11D" H 6950 7450 60  0001 C CNN "MFPN"
F 5 "490-10730-1-ND" H 6950 7450 60  0001 C CNN "DIGIKEY"
F 6 "Murata Electronics North America" H 6950 7450 60  0001 C CNN "MFN"
F 7 "Capacitor X5R ±10%" H 6950 7450 60  0001 C CNN "Description"
	1    6950 7450
	1    0    0    -1  
$EndComp
Wire Wire Line
	6950 7550 6950 7750
Wire Wire Line
	1950 7900 1950 7950
Wire Wire Line
	1950 8150 1950 8200
$Comp
L Led_Small D23
U 1 1 576E423C
P 3100 7200
F 0 "D23" V 3054 7298 50  0000 L CNN
F 1 "red" V 3145 7298 50  0000 L CNN
F 2 "LEDs:LED_0805" V 3191 7298 50  0001 L CNN
F 3 "" V 3100 7200 50  0000 C CNN
F 4 "LH R974-LP-1" H 3100 7200 60  0001 C CNN "MFPN"
F 5 "475-1415-1-ND" H 3100 7200 60  0001 C CNN "DIGIKEY"
F 6 "OSRAM Opto Semiconductors Inc." H 3100 7200 60  0001 C CNN "MFN"
	1    3100 7200
	0    1    1    0   
$EndComp
$Comp
L GND #PWR031
U 1 1 576E5AC7
P 2700 6750
F 0 "#PWR031" H 2700 6500 50  0001 C CNN
F 1 "GND" V 2705 6622 50  0000 R CNN
F 2 "" H 2700 6750 50  0000 C CNN
F 3 "" H 2700 6750 50  0000 C CNN
	1    2700 6750
	0    1    1    0   
$EndComp
Wire Wire Line
	3100 7000 3100 7100
$Comp
L Led_Small D19
U 1 1 576E60A5
P 3100 6900
F 0 "D19" V 3054 6998 50  0000 L CNN
F 1 "green" V 3145 6998 50  0000 L CNN
F 2 "LEDs:LED_0805" V 3191 6998 50  0001 L CNN
F 3 "" V 3100 6900 50  0000 C CNN
F 4 "LG R971-KN-1" H 3100 6900 60  0001 C CNN "MFPN"
F 5 "475-1410-1-ND" H 3100 6900 60  0001 C CNN "DIGIKEY"
F 6 "OSRAM Opto Semiconductors Inc." H 3100 6900 60  0001 C CNN "MFN"
	1    3100 6900
	0    1    1    0   
$EndComp
Connection ~ 3100 7050
Wire Wire Line
	3100 6750 3100 6800
$Comp
L R_Small R8
U 1 1 57704E95
P 2900 6750
F 0 "R8" V 2900 6750 50  0000 C CNN
F 1 "270" V 3000 6750 50  0000 C CNN
F 2 "Resistors_SMD:R_0603" H 2900 6750 50  0001 C CNN
F 3 "" H 2900 6750 50  0000 C CNN
F 4 "-" H 2900 6750 60  0001 C CNN "MFPN"
F 5 "-" H 2900 6750 60  0001 C CNN "DIGIKEY"
F 6 "-" H 2900 6750 60  0001 C CNN "MFN"
	1    2900 6750
	0    1    1    0   
$EndComp
$Comp
L R_Small R9
U 1 1 5770C44E
P 2900 7300
F 0 "R9" V 2900 7300 50  0000 C CNN
F 1 "330" V 2800 7300 50  0000 C CNN
F 2 "Resistors_SMD:R_0603" H 2900 7300 50  0001 C CNN
F 3 "" H 2900 7300 50  0000 C CNN
F 4 "-" H 2900 7300 60  0001 C CNN "MFPN"
F 5 "-" H 2900 7300 60  0001 C CNN "DIGIKEY"
F 6 "-" H 2900 7300 60  0001 C CNN "MFN"
	1    2900 7300
	0    1    1    0   
$EndComp
Wire Wire Line
	2200 7300 2800 7300
Wire Wire Line
	3000 7300 3100 7300
Wire Wire Line
	2800 6750 2700 6750
Wire Wire Line
	3000 6750 3100 6750
Wire Wire Line
	3100 7050 3800 7050
Wire Wire Line
	3800 7050 3800 8200
Wire Wire Line
	4850 5000 4750 5000
Text GLabel 4500 6950 0    60   BiDi ~ 0
VIN_OK
Connection ~ 4650 6950
Text GLabel 8850 6700 0    60   BiDi ~ 0
VIN_OK
Wire Wire Line
	2250 3050 2200 3050
$EndSCHEMATC
