(module 14-VFQFN (layer F.Cu) (tedit 0)
  (solder_mask_margin 0.1)
  (attr smd)
  (fp_text reference RGY14_3P65X3P65 (at -0.3302 0) (layer F.SilkS)
    (effects (font (size 1 1) (thickness 0.05)))
  )
  (fp_text value VAL** (at -0.2794 0) (layer F.SilkS)
    (effects (font (size 1 1) (thickness 0.05)))
  )
  (fp_line (start 0.2794 -1.9558) (end -0.2794 -1.9558) (layer F.SilkS) (width 0.1524))
  (fp_line (start 1.9558 -1.4732) (end 1.9558 -1.9558) (layer F.SilkS) (width 0.1524))
  (fp_line (start 1.2446 1.9558) (end 1.9558 1.9558) (layer F.SilkS) (width 0.1524))
  (fp_line (start -0.2794 1.9558) (end 0.2794 1.9558) (layer F.SilkS) (width 0.1524))
  (fp_line (start -1.9558 1.4732) (end -1.9558 1.9558) (layer F.SilkS) (width 0.1524))
  (fp_line (start -1.2446 -1.9558) (end -1.9558 -1.9558) (layer F.SilkS) (width 0.1524))
  (fp_line (start -1.9558 -1.9558) (end -1.9558 -1.4732) (layer F.SilkS) (width 0.1524))
  (fp_line (start 1.9558 -1.9558) (end 1.2446 -1.9558) (layer F.SilkS) (width 0.1524))
  (fp_line (start 1.9558 1.9558) (end 1.9558 1.4732) (layer F.SilkS) (width 0.1524))
  (fp_line (start -1.9558 1.9558) (end -1.2446 1.9558) (layer F.SilkS) (width 0.1524))
  (fp_poly (pts (xy 2.6416 0.3048) (xy 2.6416 0.6858) (xy 2.3876 0.6858) (xy 2.3876 0.3048)) (layer F.SilkS) (width 0))
  (fp_line (start -1.8288 -1.8288) (end -1.8288 -0.5588) (layer Dwgs.User) (width 0.1524))
  (fp_line (start -1.8288 -0.5588) (end -1.8288 1.8288) (layer Dwgs.User) (width 0.1524))
  (fp_line (start 1.8288 -1.8288) (end -0.5588 -1.8288) (layer Dwgs.User) (width 0.1524))
  (fp_line (start -0.5588 -1.8288) (end -1.8288 -1.8288) (layer Dwgs.User) (width 0.1524))
  (fp_line (start 1.8288 1.8288) (end 1.8288 -1.8288) (layer Dwgs.User) (width 0.1524))
  (fp_line (start -1.8288 1.8288) (end 1.8288 1.8288) (layer Dwgs.User) (width 0.1524))
  (fp_line (start -1.8288 -0.5588) (end -0.5588 -1.8288) (layer Dwgs.User) (width 0.1524))
  (pad 1 smd rect (at -0.750012 -1.7274 180) (size 0.3048 0.8128) (layers F.Cu F.Paste F.Mask)
    (solder_mask_margin 0.2))
  (pad 2 smd rect (at -1.7274 -0.999997 270) (size 0.3048 0.8128) (layers F.Cu F.Paste F.Mask)
    (solder_mask_margin 0.2))
  (pad 3 smd rect (at -1.7274 -0.5 270) (size 0.3048 0.8128) (layers F.Cu F.Paste F.Mask)
    (solder_mask_margin 0.2))
  (pad 4 smd rect (at -1.7274 0 270) (size 0.3048 0.8128) (layers F.Cu F.Paste F.Mask)
    (solder_mask_margin 0.2))
  (pad 5 smd rect (at -1.7274 0.5 270) (size 0.3048 0.8128) (layers F.Cu F.Paste F.Mask)
    (solder_mask_margin 0.2))
  (pad 6 smd rect (at -1.7274 0.999997 270) (size 0.3048 0.8128) (layers F.Cu F.Paste F.Mask)
    (solder_mask_margin 0.2))
  (pad 7 smd rect (at -0.750012 1.7274 180) (size 0.3048 0.8128) (layers F.Cu F.Paste F.Mask)
    (solder_mask_margin 0.2))
  (pad 8 smd rect (at 0.750012 1.7274 180) (size 0.3048 0.8128) (layers F.Cu F.Paste F.Mask)
    (solder_mask_margin 0.2))
  (pad 9 smd rect (at 1.7274 0.999997 270) (size 0.3048 0.8128) (layers F.Cu F.Paste F.Mask)
    (solder_mask_margin 0.2))
  (pad 10 smd rect (at 1.7274 0.5 270) (size 0.3048 0.8128) (layers F.Cu F.Paste F.Mask)
    (solder_mask_margin 0.2))
  (pad 11 smd rect (at 1.7274 0 270) (size 0.3048 0.8128) (layers F.Cu F.Paste F.Mask)
    (solder_mask_margin 0.2))
  (pad 12 smd rect (at 1.7274 -0.5 270) (size 0.3048 0.8128) (layers F.Cu F.Paste F.Mask)
    (solder_mask_margin 0.2))
  (pad 13 smd rect (at 1.7274 -0.999997 270) (size 0.3048 0.8128) (layers F.Cu F.Paste F.Mask)
    (solder_mask_margin 0.2))
  (pad 14 smd rect (at 0.750012 -1.7274 180) (size 0.3048 0.8128) (layers F.Cu F.Paste F.Mask)
    (solder_mask_margin 0.2))
)
